<svg width="287" height="306" viewBox="0 0 287 306" fill="none" xmlns="http://www.w3.org/2000/svg">
<path d="M73.6011 119.431L30.0855 94.3068L-13.4303 119.431L-13.43 169.678L30.0854 194.802L73.6012 169.678L73.6011 119.431Z" fill="#8FA93A" fill-opacity="0.35"/>
<path d="M24.4631 34.3197L-19.0522 9.19597L-62.568 34.3198L-62.568 84.5671L-19.0523 109.691L24.4635 84.5674L24.4631 34.3197Z" fill="#8FA93A" fill-opacity="0.35"/>
<path d="M122.741 34.3197L79.2251 9.19597L35.7093 34.3198L35.7097 84.5672L79.225 109.691L122.741 84.5674L122.741 34.3197Z" fill="#8FA93A" fill-opacity="0.35"/>
<path d="M221.097 204.344L177.582 179.22L134.066 204.344L134.066 254.592L177.581 279.715L221.097 254.592L221.097 204.344Z" fill="#8FA93A" fill-opacity="0.35"/>
<path d="M171.959 119.233L128.444 94.1093L84.9281 119.233L84.9281 169.48L128.444 194.605L171.96 169.481L171.959 119.233Z" fill="#8FA93A" fill-opacity="0.35"/>
<path d="M270.237 119.233L226.721 94.1093L183.205 119.233L183.206 169.481L226.721 194.605L270.237 169.481L270.237 119.233Z" fill="#8FA93A" fill-opacity="0.35"/>
<path d="M171.959 289.233L128.444 264.109L84.9281 289.233L84.9281 339.48L128.444 364.605L171.96 339.481L171.959 289.233Z" fill="#8FA93A" fill-opacity="0.35"/>
<path d="M270.237 289.233L226.721 264.109L183.205 289.233L183.206 339.481L226.721 364.605L270.237 339.481L270.237 289.233Z" fill="#8FA93A" fill-opacity="0.35"/>
<path d="M73.0972 289.344L29.5816 264.22L-13.9343 289.344L-13.9339 339.592L29.5815 364.715L73.0973 339.592L73.0972 289.344Z" fill="#8FA93A" fill-opacity="0.35"/>
<path d="M23.9592 204.233L-19.5561 179.109L-63.0719 204.233L-63.0719 254.48L-19.5562 279.605L23.9595 254.481L23.9592 204.233Z" fill="#8FA93A" fill-opacity="0.35"/>
<path d="M122.237 204.233L78.7212 179.109L35.2054 204.233L35.2058 254.481L78.7211 279.605L122.237 254.481L122.237 204.233Z" fill="#8FA93A" fill-opacity="0.35"/>
</svg>
