<svg width="36" height="33" viewBox="0 0 36 33" fill="none" xmlns="http://www.w3.org/2000/svg">
<rect width="36" height="33" rx="8" fill="#D7D7DD"/>
<path d="M24.2754 11.4064H20.955V13.3767H24.2754C25.2632 13.3767 26.0293 13.8808 26.0293 14.3149V23.0524C26.0293 23.4862 25.2632 23.991 24.2754 23.991H11.724C10.7365 23.991 9.97035 23.4862 9.97035 23.0524V14.3159C9.97035 13.8818 10.7365 13.3774 11.724 13.3774H15.044V11.407H11.724C9.63572 11.407 8 12.6848 8 14.3159V23.0528C8 24.6842 9.63572 25.9613 11.724 25.9613H24.276C26.3636 25.9613 28 24.6836 28 23.0528V14.3159C27.9997 12.6841 26.364 11.4064 24.2754 11.4064Z" fill="#9FA2B4"/>
<path d="M20.9807 15.5246C20.7285 15.5246 20.4766 15.6211 20.2842 15.8135L19.0508 17.0467V12.7687V10.7984V7.0235C19.0508 6.47969 18.6097 6.03833 18.0656 6.03833C17.5215 6.03833 17.0804 6.47969 17.0804 7.0235V10.798V12.7684V17.113L15.7803 15.8132C15.5879 15.6208 15.3357 15.5242 15.0838 15.5242C14.8319 15.5242 14.5797 15.6208 14.3873 15.8132C14.0024 16.1974 14.0024 16.8214 14.3873 17.2059L17.3287 20.1473C17.5211 20.3398 17.7733 20.4353 18.0249 20.4353C18.0275 20.4353 18.0301 20.4353 18.0324 20.4353C18.0347 20.4353 18.0374 20.4353 18.0397 20.4353C18.2919 20.4353 18.5434 20.3398 18.7358 20.1473L21.6772 17.2059C22.0621 16.8214 22.0621 16.1974 21.6772 15.8132C21.4848 15.6211 21.2333 15.5246 20.9807 15.5246Z" fill="#9FA2B4"/>
</svg>
